^C:\USERS\JUAN\DOWNLOADS\IGAA01\CODE\INCLUDE\IMGUI\IMGUI.CPP|C:\USERS\JUAN\DOWNLOADS\IGAA01\CODE\INCLUDE\IMGUI\IMGUI_DEMO.CPP|C:\USERS\JUAN\DOWNLOADS\IGAA01\CODE\INCLUDE\IMGUI\IMGUI_DRAW.CPP|C:\USERS\JUAN\DOWNLOADS\IGAA01\CODE\INCLUDE\IMGUI\IMGUI_IMPL_SDL_GL3.CPP|C:\USERS\JUAN\DOWNLOADS\IGAA01\CODE\MY_RENDER_CODE.CPP|C:\USERS\JUAN\DOWNLOADS\IGAA01\CODE\SRC\MAIN.CPP|C:\USERS\JUAN\DOWNLOADS\IGAA01\CODE\SRC\PHYSICS.CPP|C:\USERS\JUAN\DOWNLOADS\IGAA01\CODE\SRC\RENDER.CPP|C:\USERS\JUAN\DOWNLOADS\IGAA01\CODE\SRC\RENDER_PRIMS.CPP
C:\USERS\JUAN\DOWNLOADS\IGAA01\X64\DEBUG\INT\VC141.PDB
C:\USERS\JUAN\DOWNLOADS\IGAA01\X64\DEBUG\INT\VC141.IDB
C:\USERS\JUAN\DOWNLOADS\IGAA01\X64\DEBUG\INT\IMGUI.OBJ
C:\USERS\JUAN\DOWNLOADS\IGAA01\X64\DEBUG\INT\IMGUI_DEMO.OBJ
C:\USERS\JUAN\DOWNLOADS\IGAA01\X64\DEBUG\INT\IMGUI_DRAW.OBJ
C:\USERS\JUAN\DOWNLOADS\IGAA01\X64\DEBUG\INT\IMGUI_IMPL_SDL_GL3.OBJ
C:\USERS\JUAN\DOWNLOADS\IGAA01\X64\DEBUG\INT\MY_RENDER_CODE.OBJ
C:\USERS\JUAN\DOWNLOADS\IGAA01\X64\DEBUG\INT\MAIN.OBJ
C:\USERS\JUAN\DOWNLOADS\IGAA01\X64\DEBUG\INT\PHYSICS.OBJ
C:\USERS\JUAN\DOWNLOADS\IGAA01\X64\DEBUG\INT\RENDER.OBJ
C:\USERS\JUAN\DOWNLOADS\IGAA01\X64\DEBUG\INT\RENDER_PRIMS.OBJ
^C:\USERS\JUAN\DOWNLOADS\IGAA01\CODE\INCLUDE\IMGUI\IMGUI.CPP
C:\USERS\JUAN\DOWNLOADS\IGAA01\X64\DEBUG\INT\VC141.PDB
^C:\USERS\JUAN\DOWNLOADS\IGAA01\CODE\INCLUDE\IMGUI\IMGUI_DEMO.CPP
C:\USERS\JUAN\DOWNLOADS\IGAA01\X64\DEBUG\INT\VC141.PDB
^C:\USERS\JUAN\DOWNLOADS\IGAA01\CODE\INCLUDE\IMGUI\IMGUI_DRAW.CPP
C:\USERS\JUAN\DOWNLOADS\IGAA01\X64\DEBUG\INT\VC141.PDB
^C:\USERS\JUAN\DOWNLOADS\IGAA01\CODE\INCLUDE\IMGUI\IMGUI_IMPL_SDL_GL3.CPP
C:\USERS\JUAN\DOWNLOADS\IGAA01\X64\DEBUG\INT\VC141.PDB
^C:\USERS\JUAN\DOWNLOADS\IGAA01\CODE\MY_RENDER_CODE.CPP
C:\USERS\JUAN\DOWNLOADS\IGAA01\X64\DEBUG\INT\VC141.PDB
C:\USERS\JUAN\DOWNLOADS\IGAA01\X64\DEBUG\INT\VC141.IDB
C:\USERS\JUAN\DOWNLOADS\IGAA01\X64\DEBUG\INT\MY_RENDER_CODE.OBJ
^C:\USERS\JUAN\DOWNLOADS\IGAA01\CODE\SRC\MAIN.CPP
C:\USERS\JUAN\DOWNLOADS\IGAA01\X64\DEBUG\INT\VC141.PDB
C:\USERS\JUAN\DOWNLOADS\IGAA01\X64\DEBUG\INT\VC141.IDB
C:\USERS\JUAN\DOWNLOADS\IGAA01\X64\DEBUG\INT\MAIN.OBJ
^C:\USERS\JUAN\DOWNLOADS\IGAA01\CODE\SRC\PHYSICS.CPP
C:\USERS\JUAN\DOWNLOADS\IGAA01\X64\DEBUG\INT\VC141.PDB
^C:\USERS\JUAN\DOWNLOADS\IGAA01\CODE\SRC\RENDER.CPP
C:\USERS\JUAN\DOWNLOADS\IGAA01\X64\DEBUG\INT\VC141.PDB
^C:\USERS\JUAN\DOWNLOADS\IGAA01\CODE\SRC\RENDER_PRIMS.CPP
C:\USERS\JUAN\DOWNLOADS\IGAA01\X64\DEBUG\INT\VC141.PDB
^C:\USERS\JUAN\DOWNLOADS\IGAA01\CODE\MY_RENDER_CODE.CPP|C:\USERS\JUAN\DOWNLOADS\IGAA01\CODE\SRC\MAIN.CPP
C:\USERS\JUAN\DOWNLOADS\IGAA01\X64\DEBUG\INT\VC141.PDB
C:\USERS\JUAN\DOWNLOADS\IGAA01\X64\DEBUG\INT\VC141.IDB
C:\USERS\JUAN\DOWNLOADS\IGAA01\X64\DEBUG\INT\MY_RENDER_CODE.OBJ
C:\USERS\JUAN\DOWNLOADS\IGAA01\X64\DEBUG\INT\MAIN.OBJ
